{
  "connection": "default",
  "collectionName": "blog",
  "info": {
    "name": "blog",
    "description": ""
  },
  "options": {
    "timestamps": [
      "createdAt",
      "updatedAt"
    ]
  },
  "attributes": {
    "title": {
      "type": "string"
    },
    "body": {
      "type": "richtext"
    },
    "category": {
      "model": "category"
    },
    "Thumbnail": {
      "model": "file",
      "via": "related",
      "plugin": "upload"
    }
  }
}