{
  "connection": "default",
  "collectionName": "",
  "info": {
    "name": "category",
    "description": ""
  },
  "options": {
    "timestamps": true
  },
  "attributes": {
    "name": {
      "type": "string"
    },
    "description": {
      "type": "richtext"
    }
  }
}